verilog/pixelArray_tb.vcd
$date
	Fri Nov 19 06:16:55 2021
$end
$version
	Icarus Verilog
$end
$timescale
	1ps
$end
$scope module pixelArray_tb $end
$var wire 16 ! DATA [15:0] $end
$var wire 1 " anaRamp $end
$var wire 1 # anaBias1 $end
$var reg 1 $ clk $end
$var reg 1 % convert $end
$var reg 16 & data [15:0] $end
$var reg 1 ' erase $end
$var reg 1 ( expose $end
$var reg 3 ) next_state [2:0] $end
$var reg 16 * pixelDataOut [15:0] $end
$var reg 1 + read $end
$var reg 2 , readArray [1:0] $end
$var reg 1 - reset $end
$var reg 3 . state [2:0] $end
$var reg 2 / Row_number [1:0] $end
$var integer 32 0 counter [31:0] $end
$var reg 8 1 digRamp [7:0] $end
$scope module pa1 $end
$var wire 16 2 DATA [15:0] $end
$var wire 1 " RAMP $end
$var wire 1 - RESET $end
$var wire 1 # VBN1 $end
$var wire 1 % convert $end
$var wire 1 ' erase $end
$var wire 1 ( expose $end
$var wire 2 3 readArray [1:0] $end
$scope begin row[0] $end
$scope begin column[0] $end
$scope module ps $end
$var wire 8 4 DATA [7:0] $end
$var wire 1 ' ERASE $end
$var wire 1 ( EXPOSE $end
$var wire 1 " RAMP $end
$var wire 1 5 READ $end
$var wire 1 - RESET $end
$var wire 1 # VBN1 $end
$var reg 1 6 cmp $end
$var reg 8 7 p_data [7:0] $end
$var real 1 8 adc $end
$var real 1 9 lsb $end
$var real 1 : tmp $end
$var real 1 ; v_erase $end
$upscope $end
$upscope $end
$scope begin column[1] $end
$scope module ps $end
$var wire 8 < DATA [7:0] $end
$var wire 1 ' ERASE $end
$var wire 1 ( EXPOSE $end
$var wire 1 " RAMP $end
$var wire 1 = READ $end
$var wire 1 - RESET $end
$var wire 1 # VBN1 $end
$var reg 1 > cmp $end
$var reg 8 ? p_data [7:0] $end
$var real 1 @ adc $end
$var real 1 A lsb $end
$var real 1 B tmp $end
$var real 1 C v_erase $end
$upscope $end
$upscope $end
$upscope $end
$scope begin row[1] $end
$scope begin column[0] $end
$scope module ps $end
$var wire 8 D DATA [7:0] $end
$var wire 1 ' ERASE $end
$var wire 1 ( EXPOSE $end
$var wire 1 " RAMP $end
$var wire 1 E READ $end
$var wire 1 - RESET $end
$var wire 1 # VBN1 $end
$var reg 1 F cmp $end
$var reg 8 G p_data [7:0] $end
$var real 1 H adc $end
$var real 1 I lsb $end
$var real 1 J tmp $end
$var real 1 K v_erase $end
$upscope $end
$upscope $end
$scope begin column[1] $end
$scope module ps $end
$var wire 8 L DATA [7:0] $end
$var wire 1 ' ERASE $end
$var wire 1 ( EXPOSE $end
$var wire 1 " RAMP $end
$var wire 1 M READ $end
$var wire 1 - RESET $end
$var wire 1 # VBN1 $end
$var reg 1 N cmp $end
$var reg 8 O p_data [7:0] $end
$var real 1 P adc $end
$var real 1 Q lsb $end
$var real 1 R tmp $end
$var real 1 S v_erase $end
$upscope $end
$upscope $end
$upscope $end
$upscope $end
$upscope $end
$enddefinitions $end
#500000
$dumpvars
r1.2 S
r0 R
r0.004705882352941176 Q
r0 P
bx O
xN
xM
bx L
r1.2 K
r0 J
r0.004705882352941176 I
r0 H
bx G
xF
xE
bx D
r1.2 C
r0 B
r0.004705882352941176 A
r0 @
bx ?
x>
x=
bx <
r1.2 ;
r0 :
r0.004705882352941176 9
r0 8
bx 7
x6
x5
bx 4
bx 3
bx 2
b0 1
b0 0
b0 /
b0 .
0-
bx ,
x+
b0 *
b0 )
x(
x'
b0 &
0%
1$
x#
0"
bx !
$end
#1000000
b0 4
b0 <
b0 D
b0 L
b0 !
b0 2
05
0=
0E
0M
0N
b0 O
r1.2 R
0F
b0 G
r1.2 J
0>
b0 ?
r1.2 B
06
b0 7
r1.2 :
0(
b0 ,
b0 3
0+
1'
0#
0$
#1500000
b1 0
1$
#2000000
0$
#2500000
b10 0
1$
#3000000
0$
#3500000
b11 0
1$
#4000000
0$
#4500000
b100 0
1$
#5000000
0$
#5500000
b101 0
1$
#6000000
0$
#6500000
b100 .
b1 )
b110 0
1$
#7000000
0'
0$
#7500000
b1 .
b0 0
1$
#8000000
1(
0$
#8500000
r1.199934588235294 R
r1.199943764705882 J
r1.199943764705882 B
r1.19995294117647 :
b1 0
1#
1$
#9000000
0#
0$
#9500000
r1.199905882352941 :
r1.199887529411765 B
r1.199887529411765 J
r1.199869176470588 R
b10 0
1#
1$
#10000000
0#
0$
#10500000
r1.199803764705882 R
r1.199831294117647 J
r1.199831294117647 B
r1.199858823529411 :
b11 0
1#
1$
#11000000
0#
0$
#11500000
r1.199811764705882 :
r1.19977505882353 B
r1.19977505882353 J
r1.199738352941176 R
b100 0
1#
1$
#12000000
0#
0$
#12500000
r1.199672941176471 R
r1.199718823529412 J
r1.199718823529412 B
r1.199764705882352 :
b101 0
1#
1$
#13000000
0#
0$
#13500000
r1.199717647058823 :
r1.199662588235294 B
r1.199662588235294 J
r1.199607529411765 R
b110 0
1#
1$
#14000000
0#
0$
#14500000
r1.199542117647059 R
r1.199606352941177 J
r1.199606352941177 B
r1.199670588235293 :
b111 0
1#
1$
#15000000
0#
0$
#15500000
r1.199623529411764 :
r1.199550117647059 B
r1.199550117647059 J
r1.199476705882353 R
b1000 0
1#
1$
#16000000
0#
0$
#16500000
r1.199411294117647 R
r1.199493882352942 J
r1.199493882352942 B
r1.199576470588234 :
b1001 0
1#
1$
#17000000
0#
0$
#17500000
r1.199529411764705 :
r1.199437647058824 B
r1.199437647058824 J
r1.199345882352941 R
b1010 0
1#
1$
#18000000
0#
0$
#18500000
r1.199280470588235 R
r1.199381411764707 J
r1.199381411764707 B
r1.199482352941175 :
b1011 0
1#
1$
#19000000
0#
0$
#19500000
r1.199435294117646 :
r1.199325176470589 B
r1.199325176470589 J
r1.19921505882353 R
b1100 0
1#
1$
#20000000
0#
0$
#20500000
r1.199149647058824 R
r1.199268941176471 J
r1.199268941176471 B
r1.199388235294116 :
b1101 0
1#
1$
#21000000
0#
0$
#21500000
r1.199341176470587 :
r1.199212705882354 B
r1.199212705882354 J
r1.199084235294118 R
b1110 0
1#
1$
#22000000
0#
0$
#22500000
r1.199018823529412 R
r1.199156470588236 J
r1.199156470588236 B
r1.199294117647057 :
b1111 0
1#
1$
#23000000
0#
0$
#23500000
r1.199247058823528 :
r1.199100235294119 B
r1.199100235294119 J
r1.198953411764706 R
b10000 0
1#
1$
#24000000
0#
0$
#24500000
r1.198888 R
r1.199044000000001 J
r1.199044000000001 B
r1.199199999999998 :
b10001 0
1#
1$
#25000000
0#
0$
#25500000
r1.199152941176469 :
r1.198987764705884 B
r1.198987764705884 J
r1.198822588235294 R
b10010 0
1#
1$
#26000000
0#
0$
#26500000
r1.198757176470588 R
r1.198931529411766 J
r1.198931529411766 B
r1.199105882352939 :
b10011 0
1#
1$
#27000000
0#
0$
#27500000
r1.19905882352941 :
r1.198875294117648 B
r1.198875294117648 J
r1.198691764705883 R
b10100 0
1#
1$
#28000000
0#
0$
#28500000
r1.198626352941177 R
r1.198819058823531 J
r1.198819058823531 B
r1.19901176470588 :
b10101 0
1#
1$
#29000000
0#
0$
#29500000
r1.198964705882351 :
r1.198762823529413 B
r1.198762823529413 J
r1.198560941176471 R
b10110 0
1#
1$
#30000000
0#
0$
#30500000
r1.198495529411765 R
r1.198706588235296 J
r1.198706588235296 B
r1.198917647058821 :
b10111 0
1#
1$
#31000000
0#
0$
#31500000
r1.198870588235292 :
r1.198650352941178 B
r1.198650352941178 J
r1.198430117647059 R
b11000 0
1#
1$
#32000000
0#
0$
#32500000
r1.198364705882353 R
r1.19859411764706 J
r1.19859411764706 B
r1.198823529411762 :
b11001 0
1#
1$
#33000000
0#
0$
#33500000
r1.198776470588233 :
r1.198537882352943 B
r1.198537882352943 J
r1.198299294117647 R
b11010 0
1#
1$
#34000000
0#
0$
#34500000
r1.198233882352941 R
r1.198481647058825 J
r1.198481647058825 B
r1.198729411764703 :
b11011 0
1#
1$
#35000000
0#
0$
#35500000
r1.198682352941174 :
r1.198425411764708 B
r1.198425411764708 J
r1.198168470588236 R
b11100 0
1#
1$
#36000000
0#
0$
#36500000
r1.19810305882353 R
r1.19836917647059 J
r1.19836917647059 B
r1.198635294117644 :
b11101 0
1#
1$
#37000000
0#
0$
#37500000
r1.198588235294115 :
r1.198312941176473 B
r1.198312941176473 J
r1.198037647058824 R
b11110 0
1#
1$
#38000000
0#
0$
#38500000
r1.197972235294118 R
r1.198256705882355 J
r1.198256705882355 B
r1.198541176470585 :
b11111 0
1#
1$
#39000000
0#
0$
#39500000
r1.198494117647056 :
r1.198200470588237 B
r1.198200470588237 J
r1.197906823529412 R
b100000 0
1#
1$
#40000000
0#
0$
#40500000
r1.197841411764706 R
r1.19814423529412 J
r1.19814423529412 B
r1.198447058823526 :
b100001 0
1#
1$
#41000000
0#
0$
#41500000
r1.198399999999997 :
r1.198088000000002 B
r1.198088000000002 J
r1.197776 R
b100010 0
1#
1$
#42000000
0#
0$
#42500000
r1.197710588235295 R
r1.198031764705885 J
r1.198031764705885 B
r1.198352941176467 :
b100011 0
1#
1$
#43000000
0#
0$
#43500000
r1.198305882352938 :
r1.197975529411767 B
r1.197975529411767 J
r1.197645176470589 R
b100100 0
1#
1$
#44000000
0#
0$
#44500000
r1.197579764705883 R
r1.19791929411765 J
r1.19791929411765 B
r1.198258823529408 :
b100101 0
1#
1$
#45000000
0#
0$
#45500000
r1.198211764705879 :
r1.197863058823532 B
r1.197863058823532 J
r1.197514352941177 R
b100110 0
1#
1$
#46000000
0#
0$
#46500000
r1.197448941176471 R
r1.197806823529414 J
r1.197806823529414 B
r1.198164705882349 :
b100111 0
1#
1$
#47000000
0#
0$
#47500000
r1.19811764705882 :
r1.197750588235297 B
r1.197750588235297 J
r1.197383529411765 R
b101000 0
1#
1$
#48000000
0#
0$
#48500000
r1.197318117647059 R
r1.197694352941179 J
r1.197694352941179 B
r1.19807058823529 :
b101001 0
1#
1$
#49000000
0#
0$
#49500000
r1.19802352941176 :
r1.197638117647062 B
r1.197638117647062 J
r1.197252705882353 R
b101010 0
1#
1$
#50000000
0#
0$
#50500000
r1.197187294117648 R
r1.197581882352944 J
r1.197581882352944 B
r1.197976470588231 :
b101011 0
1#
1$
#51000000
0#
0$
#51500000
r1.197929411764701 :
r1.197525647058826 B
r1.197525647058826 J
r1.197121882352942 R
b101100 0
1#
1$
#52000000
0#
0$
#52500000
r1.197056470588236 R
r1.197469411764709 J
r1.197469411764709 B
r1.197882352941172 :
b101101 0
1#
1$
#53000000
0#
0$
#53500000
r1.197835294117642 :
r1.197413176470591 B
r1.197413176470591 J
r1.19699105882353 R
b101110 0
1#
1$
#54000000
0#
0$
#54500000
r1.196925647058824 R
r1.197356941176474 J
r1.197356941176474 B
r1.197788235294113 :
b101111 0
1#
1$
#55000000
0#
0$
#55500000
r1.197741176470583 :
r1.197300705882356 B
r1.197300705882356 J
r1.196860235294118 R
b110000 0
1#
1$
#56000000
0#
0$
#56500000
r1.196794823529412 R
r1.197244470588239 J
r1.197244470588239 B
r1.197694117647054 :
b110001 0
1#
1$
#57000000
0#
0$
#57500000
r1.197647058823524 :
r1.197188235294121 B
r1.197188235294121 J
r1.196729411764706 R
b110010 0
1#
1$
#58000000
0#
0$
#58500000
r1.196664000000001 R
r1.197132000000003 J
r1.197132000000003 B
r1.197599999999995 :
b110011 0
1#
1$
#59000000
0#
0$
#59500000
r1.197552941176465 :
r1.197075764705886 B
r1.197075764705886 J
r1.196598588235295 R
b110100 0
1#
1$
#60000000
0#
0$
#60500000
r1.196533176470589 R
r1.197019529411768 J
r1.197019529411768 B
r1.197505882352936 :
b110101 0
1#
1$
#61000000
0#
0$
#61500000
r1.197458823529406 :
r1.196963294117651 B
r1.196963294117651 J
r1.196467764705883 R
b110110 0
1#
1$
#62000000
0#
0$
#62500000
r1.196402352941177 R
r1.196907058823533 J
r1.196907058823533 B
r1.197411764705877 :
b110111 0
1#
1$
#63000000
0#
0$
#63500000
r1.197364705882347 :
r1.196850823529416 B
r1.196850823529416 J
r1.196336941176471 R
b111000 0
1#
1$
#64000000
0#
0$
#64500000
r1.196271529411765 R
r1.196794588235298 J
r1.196794588235298 B
r1.197317647058818 :
b111001 0
1#
1$
#65000000
0#
0$
#65500000
r1.197270588235288 :
r1.19673835294118 B
r1.19673835294118 J
r1.19620611764706 R
b111010 0
1#
1$
#66000000
0#
0$
#66500000
r1.196140705882354 R
r1.196682117647063 J
r1.196682117647063 B
r1.197223529411759 :
b111011 0
1#
1$
#67000000
0#
0$
#67500000
r1.197176470588229 :
r1.196625882352945 B
r1.196625882352945 J
r1.196075294117648 R
b111100 0
1#
1$
#68000000
0#
0$
#68500000
r1.196009882352942 R
r1.196569647058828 J
r1.196569647058828 B
r1.1971294117647 :
b111101 0
1#
1$
#69000000
0#
0$
#69500000
r1.19708235294117 :
r1.19651341176471 B
r1.19651341176471 J
r1.195944470588236 R
b111110 0
1#
1$
#70000000
0#
0$
#70500000
r1.19587905882353 R
r1.196457176470592 J
r1.196457176470592 B
r1.197035294117641 :
b111111 0
1#
1$
#71000000
0#
0$
#71500000
r1.196988235294111 :
r1.196400941176475 B
r1.196400941176475 J
r1.195813647058824 R
b1000000 0
1#
1$
#72000000
0#
0$
#72500000
r1.195748235294118 R
r1.196344705882357 J
r1.196344705882357 B
r1.196941176470582 :
b1000001 0
1#
1$
#73000000
0#
0$
#73500000
r1.196894117647052 :
r1.19628847058824 B
r1.19628847058824 J
r1.195682823529413 R
b1000010 0
1#
1$
#74000000
0#
0$
#74500000
r1.195617411764707 R
r1.196232235294122 J
r1.196232235294122 B
r1.196847058823523 :
b1000011 0
1#
1$
#75000000
0#
0$
#75500000
r1.196799999999993 :
r1.196176000000005 B
r1.196176000000005 J
r1.195552000000001 R
b1000100 0
1#
1$
#76000000
0#
0$
#76500000
r1.195486588235295 R
r1.196119764705887 J
r1.196119764705887 B
r1.196752941176464 :
b1000101 0
1#
1$
#77000000
0#
0$
#77500000
r1.196705882352934 :
r1.196063529411769 B
r1.196063529411769 J
r1.195421176470589 R
b1000110 0
1#
1$
#78000000
0#
0$
#78500000
r1.195355764705883 R
r1.196007294117652 J
r1.196007294117652 B
r1.196658823529405 :
b1000111 0
1#
1$
#79000000
0#
0$
#79500000
r1.196611764705875 :
r1.195951058823534 B
r1.195951058823534 J
r1.195290352941177 R
b1001000 0
1#
1$
#80000000
0#
0$
#80500000
r1.195224941176471 R
r1.195894823529417 J
r1.195894823529417 B
r1.196564705882346 :
b1001001 0
1#
1$
#81000000
0#
0$
#81500000
r1.196517647058816 :
r1.195838588235299 B
r1.195838588235299 J
r1.195159529411766 R
b1001010 0
1#
1$
#82000000
0#
0$
#82500000
r1.19509411764706 R
r1.195782352941182 J
r1.195782352941182 B
r1.196470588235287 :
b1001011 0
1#
1$
#83000000
0#
0$
#83500000
r1.196423529411757 :
r1.195726117647064 B
r1.195726117647064 J
r1.195028705882354 R
b1001100 0
1#
1$
#84000000
0#
0$
#84500000
r1.194963294117648 R
r1.195669882352946 J
r1.195669882352946 B
r1.196376470588228 :
b1001101 0
1#
1$
#85000000
0#
0$
#85500000
r1.196329411764698 :
r1.195613647058829 B
r1.195613647058829 J
r1.194897882352942 R
b1001110 0
1#
1$
#86000000
0#
0$
#86500000
r1.194832470588236 R
r1.195557411764711 J
r1.195557411764711 B
r1.196282352941169 :
b1001111 0
1#
1$
#87000000
0#
0$
#87500000
r1.196235294117639 :
r1.195501176470594 B
r1.195501176470594 J
r1.19476705882353 R
b1010000 0
1#
1$
#88000000
0#
0$
#88500000
r1.194701647058825 R
r1.195444941176476 J
r1.195444941176476 B
r1.19618823529411 :
b1010001 0
1#
1$
#89000000
0#
0$
#89500000
r1.19614117647058 :
r1.195388705882358 B
r1.195388705882358 J
r1.194636235294119 R
b1010010 0
1#
1$
#90000000
0#
0$
#90500000
r1.194570823529413 R
r1.195332470588241 J
r1.195332470588241 B
r1.196094117647051 :
b1010011 0
1#
1$
#91000000
0#
0$
#91500000
r1.196047058823521 :
r1.195276235294123 B
r1.195276235294123 J
r1.194505411764707 R
b1010100 0
1#
1$
#92000000
0#
0$
#92500000
r1.194440000000001 R
r1.195220000000006 J
r1.195220000000006 B
r1.195999999999992 :
b1010101 0
1#
1$
#93000000
0#
0$
#93500000
r1.195952941176462 :
r1.195163764705888 B
r1.195163764705888 J
r1.194374588235295 R
b1010110 0
1#
1$
#94000000
0#
0$
#94500000
r1.194309176470589 R
r1.195107529411771 J
r1.195107529411771 B
r1.195905882352932 :
b1010111 0
1#
1$
#95000000
0#
0$
#95500000
r1.195858823529403 :
r1.195051294117653 B
r1.195051294117653 J
r1.194243764705883 R
b1011000 0
1#
1$
#96000000
0#
0$
#96500000
r1.194178352941178 R
r1.194995058823535 J
r1.194995058823535 B
r1.195811764705873 :
b1011001 0
1#
1$
#97000000
0#
0$
#97500000
r1.195764705882344 :
r1.194938823529418 B
r1.194938823529418 J
r1.194112941176472 R
b1011010 0
1#
1$
#98000000
0#
0$
#98500000
r1.194047529411766 R
r1.1948825882353 J
r1.1948825882353 B
r1.195717647058814 :
b1011011 0
1#
1$
#99000000
0#
0$
#99500000
r1.195670588235285 :
r1.194826352941183 B
r1.194826352941183 J
r1.19398211764706 R
b1011100 0
1#
1$
#100000000
0#
0$
#100500000
r1.193916705882354 R
r1.194770117647065 J
r1.194770117647065 B
r1.195623529411755 :
b1011101 0
1#
1$
#101000000
0#
0$
#101500000
r1.195576470588226 :
r1.194713882352948 B
r1.194713882352948 J
r1.193851294117648 R
b1011110 0
1#
1$
#102000000
0#
0$
#102500000
r1.193785882352942 R
r1.19465764705883 J
r1.19465764705883 B
r1.195529411764696 :
b1011111 0
1#
1$
#103000000
0#
0$
#103500000
r1.195482352941167 :
r1.194601411764712 B
r1.194601411764712 J
r1.193720470588236 R
b1100000 0
1#
1$
#104000000
0#
0$
#104500000
r1.193655058823531 R
r1.194545176470595 J
r1.194545176470595 B
r1.195435294117637 :
b1100001 0
1#
1$
#105000000
0#
0$
#105500000
r1.195388235294108 :
r1.194488941176477 B
r1.194488941176477 J
r1.193589647058825 R
b1100010 0
1#
1$
#106000000
0#
0$
#106500000
r1.193524235294119 R
r1.19443270588236 J
r1.19443270588236 B
r1.195341176470578 :
b1100011 0
1#
1$
#107000000
0#
0$
#107500000
r1.195294117647049 :
r1.194376470588242 B
r1.194376470588242 J
r1.193458823529413 R
b1100100 0
1#
1$
#108000000
0#
0$
#108500000
r1.193393411764707 R
r1.194320235294124 J
r1.194320235294124 B
r1.195247058823519 :
b1100101 0
1#
1$
#109000000
0#
0$
#109500000
r1.19519999999999 :
r1.194264000000007 B
r1.194264000000007 J
r1.193328000000001 R
b1100110 0
1#
1$
#110000000
0#
0$
#110500000
r1.193262588235295 R
r1.194207764705889 J
r1.194207764705889 B
r1.19515294117646 :
b1100111 0
1#
1$
#111000000
0#
0$
#111500000
r1.195105882352931 :
r1.194151529411772 B
r1.194151529411772 J
r1.19319717647059 R
b1101000 0
1#
1$
#112000000
0#
0$
#112500000
r1.193131764705884 R
r1.194095294117654 J
r1.194095294117654 B
r1.195058823529401 :
b1101001 0
1#
1$
#113000000
0#
0$
#113500000
r1.195011764705872 :
r1.194039058823537 B
r1.194039058823537 J
r1.193066352941178 R
b1101010 0
1#
1$
#114000000
0#
0$
#114500000
r1.193000941176472 R
r1.193982823529419 J
r1.193982823529419 B
r1.194964705882342 :
b1101011 0
1#
1$
#115000000
0#
0$
#115500000
r1.194917647058813 :
r1.193926588235301 B
r1.193926588235301 J
r1.192935529411766 R
b1101100 0
1#
1$
#116000000
0#
0$
#116500000
r1.19287011764706 R
r1.193870352941184 J
r1.193870352941184 B
r1.194870588235283 :
b1101101 0
1#
1$
#117000000
0#
0$
#117500000
r1.194823529411754 :
r1.193814117647066 B
r1.193814117647066 J
r1.192804705882354 R
b1101110 0
1#
1$
#118000000
0#
0$
#118500000
r1.192739294117648 R
r1.193757882352949 J
r1.193757882352949 B
r1.194776470588224 :
b1101111 0
1#
1$
#119000000
0#
0$
#119500000
r1.194729411764695 :
r1.193701647058831 B
r1.193701647058831 J
r1.192673882352943 R
b1110000 0
1#
1$
#120000000
0#
0$
#120500000
r1.192608470588237 R
r1.193645411764714 J
r1.193645411764714 B
r1.194682352941165 :
b1110001 0
1#
1$
#121000000
0#
0$
#121500000
r1.194635294117636 :
r1.193589176470596 B
r1.193589176470596 J
r1.192543058823531 R
b1110010 0
1#
1$
#122000000
0#
0$
#122500000
r1.192477647058825 R
r1.193532941176478 J
r1.193532941176478 B
r1.194588235294106 :
b1110011 0
1#
1$
#123000000
0#
0$
#123500000
r1.194541176470577 :
r1.193476705882361 B
r1.193476705882361 J
r1.192412235294119 R
b1110100 0
1#
1$
#124000000
0#
0$
#124500000
r1.192346823529413 R
r1.193420470588243 J
r1.193420470588243 B
r1.194494117647047 :
b1110101 0
1#
1$
#125000000
0#
0$
#125500000
r1.194447058823518 :
r1.193364235294126 B
r1.193364235294126 J
r1.192281411764707 R
b1110110 0
1#
1$
#126000000
0#
0$
#126500000
r1.192216000000001 R
r1.193308000000008 J
r1.193308000000008 B
r1.194399999999988 :
b1110111 0
1#
1$
#127000000
0#
0$
#127500000
r1.194352941176459 :
r1.19325176470589 B
r1.19325176470589 J
r1.192150588235296 R
b1111000 0
1#
1$
#128000000
0#
0$
#128500000
r1.19208517647059 R
r1.193195529411773 J
r1.193195529411773 B
r1.194305882352929 :
b1111001 0
1#
1$
#129000000
0#
0$
#129500000
r1.1942588235294 :
r1.193139294117655 B
r1.193139294117655 J
r1.192019764705884 R
b1111010 0
1#
1$
#130000000
0#
0$
#130500000
r1.191954352941178 R
r1.193083058823538 J
r1.193083058823538 B
r1.19421176470587 :
b1111011 0
1#
1$
#131000000
0#
0$
#131500000
r1.194164705882341 :
r1.19302682352942 B
r1.19302682352942 J
r1.191888941176472 R
b1111100 0
1#
1$
#132000000
0#
0$
#132500000
r1.191823529411766 R
r1.192970588235303 J
r1.192970588235303 B
r1.194117647058811 :
b1111101 0
1#
1$
#133000000
0#
0$
#133500000
r1.194070588235282 :
r1.192914352941185 B
r1.192914352941185 J
r1.19175811764706 R
b1111110 0
1#
1$
#134000000
0#
0$
#134500000
r1.191692705882355 R
r1.192858117647067 J
r1.192858117647067 B
r1.194023529411752 :
b1111111 0
1#
1$
#135000000
0#
0$
#135500000
r1.193976470588223 :
r1.19280188235295 B
r1.19280188235295 J
r1.191627294117649 R
b10000000 0
1#
1$
#136000000
0#
0$
#136500000
r1.191561882352943 R
r1.192745647058832 J
r1.192745647058832 B
r1.193929411764693 :
b10000001 0
1#
1$
#137000000
0#
0$
#137500000
r1.193882352941164 :
r1.192689411764715 B
r1.192689411764715 J
r1.191496470588237 R
b10000010 0
1#
1$
#138000000
0#
0$
#138500000
r1.191431058823531 R
r1.192633176470597 J
r1.192633176470597 B
r1.193835294117634 :
b10000011 0
1#
1$
#139000000
0#
0$
#139500000
r1.193788235294104 :
r1.192576941176479 B
r1.192576941176479 J
r1.191365647058825 R
b10000100 0
1#
1$
#140000000
0#
0$
#140500000
r1.191300235294119 R
r1.192520705882362 J
r1.192520705882362 B
r1.193741176470575 :
b10000101 0
1#
1$
#141000000
0#
0$
#141500000
r1.193694117647045 :
r1.192464470588244 B
r1.192464470588244 J
r1.191234823529413 R
b10000110 0
1#
1$
#142000000
0#
0$
#142500000
r1.191169411764708 R
r1.192408235294127 J
r1.192408235294127 B
r1.193647058823516 :
b10000111 0
1#
1$
#143000000
0#
0$
#143500000
r1.193599999999986 :
r1.192352000000009 B
r1.192352000000009 J
r1.191104000000002 R
b10001000 0
1#
1$
#144000000
0#
0$
#144500000
r1.191038588235296 R
r1.192295764705892 J
r1.192295764705892 B
r1.193552941176457 :
b10001001 0
1#
1$
#145000000
0#
0$
#145500000
r1.193505882352927 :
r1.192239529411774 B
r1.192239529411774 J
r1.19097317647059 R
b10001010 0
1#
1$
#146000000
0#
0$
#146500000
r1.190907764705884 R
r1.192183294117656 J
r1.192183294117656 B
r1.193458823529398 :
b10001011 0
1#
1$
#147000000
0#
0$
#147500000
r1.193411764705868 :
r1.192127058823539 B
r1.192127058823539 J
r1.190842352941178 R
b10001100 0
1#
1$
#148000000
0#
0$
#148500000
r1.190776941176472 R
r1.192070823529421 J
r1.192070823529421 B
r1.193364705882339 :
b10001101 0
1#
1$
#149000000
0#
0$
#149500000
r1.193317647058809 :
r1.192014588235304 B
r1.192014588235304 J
r1.190711529411767 R
b10001110 0
1#
1$
#150000000
0#
0$
#150500000
r1.190646117647061 R
r1.191958352941186 J
r1.191958352941186 B
r1.19327058823528 :
b10001111 0
1#
1$
#151000000
0#
0$
#151500000
r1.19322352941175 :
r1.191902117647069 B
r1.191902117647069 J
r1.190580705882355 R
b10010000 0
1#
1$
#152000000
0#
0$
#152500000
r1.190515294117649 R
r1.191845882352951 J
r1.191845882352951 B
r1.193176470588221 :
b10010001 0
1#
1$
#153000000
0#
0$
#153500000
r1.193129411764691 :
r1.191789647058833 B
r1.191789647058833 J
r1.190449882352943 R
b10010010 0
1#
1$
#154000000
0#
0$
#154500000
r1.190384470588237 R
r1.191733411764716 J
r1.191733411764716 B
r1.193082352941162 :
b10010011 0
1#
1$
#155000000
0#
0$
#155500000
r1.193035294117632 :
r1.191677176470598 B
r1.191677176470598 J
r1.190319058823531 R
b10010100 0
1#
1$
#156000000
0#
0$
#156500000
r1.190253647058825 R
r1.191620941176481 J
r1.191620941176481 B
r1.192988235294103 :
b10010101 0
1#
1$
#157000000
0#
0$
#157500000
r1.192941176470573 :
r1.191564705882363 B
r1.191564705882363 J
r1.19018823529412 R
b10010110 0
1#
1$
#158000000
0#
0$
#158500000
r1.190122823529414 R
r1.191508470588245 J
r1.191508470588245 B
r1.192894117647044 :
b10010111 0
1#
1$
#159000000
0#
0$
#159500000
r1.192847058823514 :
r1.191452235294128 B
r1.191452235294128 J
r1.190057411764708 R
b10011000 0
1#
1$
#160000000
0#
0$
#160500000
r1.189992000000002 R
r1.19139600000001 J
r1.19139600000001 B
r1.192799999999985 :
b10011001 0
1#
1$
#161000000
0#
0$
#161500000
r1.192752941176455 :
r1.191339764705893 B
r1.191339764705893 J
r1.189926588235296 R
b10011010 0
1#
1$
#162000000
0#
0$
#162500000
r1.18986117647059 R
r1.191283529411775 J
r1.191283529411775 B
r1.192705882352926 :
b10011011 0
1#
1$
#163000000
0#
0$
#163500000
r1.192658823529396 :
r1.191227294117658 B
r1.191227294117658 J
r1.189795764705884 R
b10011100 0
1#
1$
#164000000
0#
0$
#164500000
r1.189730352941178 R
r1.19117105882354 J
r1.19117105882354 B
r1.192611764705867 :
b10011101 0
1#
1$
#165000000
0#
0$
#165500000
r1.192564705882337 :
r1.191114823529422 B
r1.191114823529422 J
r1.189664941176473 R
b10011110 0
1#
1$
#166000000
0#
0$
#166500000
r1.189599529411767 R
r1.191058588235305 J
r1.191058588235305 B
r1.192517647058808 :
b10011111 0
1#
1$
#167000000
0#
0$
#167500000
r1.192470588235278 :
r1.191002352941187 B
r1.191002352941187 J
r1.189534117647061 R
b10100000 0
1#
1$
#168000000
0#
0$
#168500000
r1.189468705882355 R
r1.19094611764707 J
r1.19094611764707 B
r1.192423529411749 :
b10100001 0
1#
1$
#169000000
0#
0$
#169500000
r1.192376470588219 :
r1.190889882352952 B
r1.190889882352952 J
r1.189403294117649 R
b10100010 0
1#
1$
#170000000
0#
0$
#170500000
r1.189337882352943 R
r1.190833647058835 J
r1.190833647058835 B
r1.19232941176469 :
b10100011 0
1#
1$
#171000000
0#
0$
#171500000
r1.19228235294116 :
r1.190777411764717 B
r1.190777411764717 J
r1.189272470588237 R
b10100100 0
1#
1$
#172000000
0#
0$
#172500000
r1.189207058823532 R
r1.190721176470599 J
r1.190721176470599 B
r1.192235294117631 :
b10100101 0
1#
1$
#173000000
0#
0$
#173500000
r1.192188235294101 :
r1.190664941176482 B
r1.190664941176482 J
r1.189141647058826 R
b10100110 0
1#
1$
#174000000
0#
0$
#174500000
r1.18907623529412 R
r1.190608705882364 J
r1.190608705882364 B
r1.192141176470572 :
b10100111 0
1#
1$
#175000000
0#
0$
#175500000
r1.192094117647042 :
r1.190552470588247 B
r1.190552470588247 J
r1.189010823529414 R
b10101000 0
1#
1$
#176000000
0#
0$
#176500000
r1.188945411764708 R
r1.190496235294129 J
r1.190496235294129 B
r1.192047058823513 :
b10101001 0
1#
1$
#177000000
0#
0$
#177500000
r1.191999999999983 :
r1.190440000000011 B
r1.190440000000011 J
r1.188880000000002 R
b10101010 0
1#
1$
#178000000
0#
0$
#178500000
r1.188814588235296 R
r1.190383764705894 J
r1.190383764705894 B
r1.191952941176454 :
b10101011 0
1#
1$
#179000000
0#
0$
#179500000
r1.191905882352924 :
r1.190327529411776 B
r1.190327529411776 J
r1.18874917647059 R
b10101100 0
1#
1$
#180000000
0#
0$
#180500000
r1.188683764705885 R
r1.190271294117659 J
r1.190271294117659 B
r1.191858823529395 :
b10101101 0
1#
1$
#181000000
0#
0$
#181500000
r1.191811764705865 :
r1.190215058823541 B
r1.190215058823541 J
r1.188618352941179 R
b10101110 0
1#
1$
#182000000
0#
0$
#182500000
r1.188552941176473 R
r1.190158823529424 J
r1.190158823529424 B
r1.191764705882336 :
b10101111 0
1#
1$
#183000000
0#
0$
#183500000
r1.191717647058806 :
r1.190102588235306 B
r1.190102588235306 J
r1.188487529411767 R
b10110000 0
1#
1$
#184000000
0#
0$
#184500000
r1.188422117647061 R
r1.190046352941188 J
r1.190046352941188 B
r1.191670588235276 :
b10110001 0
1#
1$
#185000000
0#
0$
#185500000
r1.191623529411747 :
r1.189990117647071 B
r1.189990117647071 J
r1.188356705882355 R
b10110010 0
1#
1$
#186000000
0#
0$
